^C:\_SKOLA\_VŠ\_7.SEMESTR\CPP DIVIS\CV05\CV05\SOURCE.CPP
C:\_SKOLA\_Vš\_7.SEMESTR\CPP DIVIS\CV05\CV05\DEBUG\VC120.PDB
C:\_SKOLA\_Vš\_7.SEMESTR\CPP DIVIS\CV05\CV05\DEBUG\VC120.IDB
C:\_SKOLA\_VŠ\_7.SEMESTR\CPP DIVIS\CV05\CV05\DEBUG\SOURCE.OBJ
