^C:\USERS\JOCHY\DESKTOP\DIVIS01\DIVIS01\DIVIS01.CPP
/c /ZI /nologo /W3 /WX- /Od /Oy- /D WIN32 /D _DEBUG /D _CONSOLE /D _LIB /D _UNICODE /D UNICODE /Gm /EHsc /RTC1 /MDd /GS /fp:precise /Zc:wchar_t /Zc:forScope /Fo"DEBUG\\" /Fd"DEBUG\VC120.PDB" /Gd /TP /analyze- C:\USERS\JOCHY\DESKTOP\DIVIS01\DIVIS01\DIVIS01.CPP
^C:\USERS\JOCHY\DESKTOP\DIVIS01\DIVIS01\CV01.CPP
/c /ZI /nologo /W3 /WX- /Od /Oy- /D WIN32 /D _DEBUG /D _CONSOLE /D _LIB /D _UNICODE /D UNICODE /Gm /EHsc /RTC1 /MDd /GS /fp:precise /Zc:wchar_t /Zc:forScope /Fo"DEBUG\\" /Fd"DEBUG\VC120.PDB" /Gd /TP /analyze- C:\USERS\JOCHY\DESKTOP\DIVIS01\DIVIS01\CV01.CPP
