^C:\USERS\JOCHY\DESKTOP\DIVIS01\DIVIS01\DEBUG\DIVIS01.OBJ
/OUT:"C:\USERS\JOCHY\DESKTOP\DIVIS01\DEBUG\DIVIS01.EXE" /INCREMENTAL /NOLOGO kernel32.lib user32.lib gdi32.lib winspool.lib comdlg32.lib advapi32.lib shell32.lib ole32.lib oleaut32.lib uuid.lib odbc32.lib odbccp32.lib /MANIFEST /MANIFESTUAC:"level='asInvoker' uiAccess='false'" /manifest:embed /DEBUG /PDB:"C:\USERS\JOCHY\DESKTOP\DIVIS01\DEBUG\DIVIS01.PDB" /SUBSYSTEM:CONSOLE /TLBID:1 /DYNAMICBASE /NXCOMPAT /IMPLIB:"C:\USERS\JOCHY\DESKTOP\DIVIS01\DEBUG\DIVIS01.LIB" /MACHINE:X86 DEBUG\DIVIS01.OBJ
^C:\USERS\JOCHY\DESKTOP\DIVIS01\DIVIS01\DEBUG\CV01.OBJ|C:\USERS\JOCHY\DESKTOP\DIVIS01\DIVIS01\DEBUG\DIVIS01.OBJ
/OUT:"C:\USERS\JOCHY\DESKTOP\DIVIS01\DEBUG\DIVIS01.EXE" /INCREMENTAL /NOLOGO kernel32.lib user32.lib gdi32.lib winspool.lib comdlg32.lib advapi32.lib shell32.lib ole32.lib oleaut32.lib uuid.lib odbc32.lib odbccp32.lib /MANIFEST /MANIFESTUAC:"level='asInvoker' uiAccess='false'" /manifest:embed /DEBUG /PDB:"C:\USERS\JOCHY\DESKTOP\DIVIS01\DEBUG\DIVIS01.PDB" /SUBSYSTEM:CONSOLE /TLBID:1 /DYNAMICBASE /NXCOMPAT /IMPLIB:"C:\USERS\JOCHY\DESKTOP\DIVIS01\DEBUG\DIVIS01.LIB" /MACHINE:X86 DEBUG\CV01.OBJDEBUG\DIVIS01.OBJ
