^C:\_SKOLA\_VŠ\_7.SEMESTR\CPP DIVIS\CV07 ALL\CV07\CV07\SOURCE.CPP
C:\_SKOLA\_Vš\_7.SEMESTR\CPP DIVIS\CV07 ALL\CV07\CV07\DEBUG\VC120.PDB
C:\_SKOLA\_Vš\_7.SEMESTR\CPP DIVIS\CV07 ALL\CV07\CV07\DEBUG\VC120.IDB
C:\_SKOLA\_VŠ\_7.SEMESTR\CPP DIVIS\CV07 ALL\CV07\CV07\DEBUG\SOURCE.OBJ
