^C:\USERS\JOCHY\DESKTOP\CPP DIVIS\DIVIS02\DIVIS02\SOURCE.CPP
/c /ZI /nologo /W3 /WX- /Od /Oy- /D WIN32 /D _DEBUG /D _CONSOLE /D _LIB /D _UNICODE /D UNICODE /Gm /EHsc /RTC1 /MDd /GS /fp:precise /Zc:wchar_t /Zc:forScope /Fo"DEBUG\\" /Fd"DEBUG\VC120.PDB" /Gd /TP /analyze- C:\USERS\JOCHY\DESKTOP\CPP DIVIS\DIVIS02\DIVIS02\SOURCE.CPP
^C:\_SKOLA\_VŠ\_7.SEMESTR\CPP DIVIŠ\CV01\DIVIS02\DIVIS02\SOURCE.CPP
/c /ZI /nologo /W3 /WX- /Od /Oy- /D WIN32 /D _DEBUG /D _CONSOLE /D _LIB /D _UNICODE /D UNICODE /Gm /EHsc /RTC1 /MDd /GS /fp:precise /Zc:wchar_t /Zc:forScope /Fo"DEBUG\\" /Fd"DEBUG\VC120.PDB" /Gd /TP /analyze- C:\_SKOLA\_VŠ\_7.SEMESTR\CPP DIVIŠ\CV01\DIVIS02\DIVIS02\SOURCE.CPP
