^C:\USERS\JOCHY\DESKTOP\CPP DIVIS\DIVIS02\DIVIS02\SOURCE.CPP
C:\USERS\JOCHY\DESKTOP\CPP DIVIS\DIVIS02\DIVIS02\DEBUG\VC120.PDB
C:\USERS\JOCHY\DESKTOP\CPP DIVIS\DIVIS02\DIVIS02\DEBUG\VC120.IDB
C:\USERS\JOCHY\DESKTOP\CPP DIVIS\DIVIS02\DIVIS02\DEBUG\SOURCE.OBJ
^C:\_SKOLA\_VŠ\_7.SEMESTR\CPP DIVIŠ\CV01\DIVIS02\DIVIS02\SOURCE.CPP
C:\_SKOLA\_Vš\_7.SEMESTR\CPP DIVIš\CV01\DIVIS02\DIVIS02\DEBUG\VC120.PDB
C:\_SKOLA\_Vš\_7.SEMESTR\CPP DIVIš\CV01\DIVIS02\DIVIS02\DEBUG\VC120.IDB
C:\_SKOLA\_VŠ\_7.SEMESTR\CPP DIVIš\CV01\DIVIS02\DIVIS02\DEBUG\SOURCE.OBJ
