^C:\_SKOLA\_VŠ\_7.SEMESTR\CPP DIVIS\CV03\CV03\DEBUG\SOURCE.OBJ
/OUT:"C:\_SKOLA\_VŠ\_7.SEMESTR\CPP DIVIS\CV03\DEBUG\CV03.EXE" /INCREMENTAL /NOLOGO kernel32.lib user32.lib gdi32.lib winspool.lib comdlg32.lib advapi32.lib shell32.lib ole32.lib oleaut32.lib uuid.lib odbc32.lib odbccp32.lib /MANIFEST /MANIFESTUAC:"level='asInvoker' uiAccess='false'" /manifest:embed /DEBUG /PDB:"C:\_SKOLA\_VŠ\_7.SEMESTR\CPP DIVIS\CV03\DEBUG\CV03.PDB" /SUBSYSTEM:CONSOLE /TLBID:1 /DYNAMICBASE /NXCOMPAT /IMPLIB:"C:\_SKOLA\_VŠ\_7.SEMESTR\CPP DIVIS\CV03\DEBUG\CV03.LIB" /MACHINE:X86 DEBUG\SOURCE.OBJ
^C:\_SKOLA\_VŠ\_7.SEMESTR\CPP DIVIS\CV03\CV03\DEBUG\SOURCE.OBJ|C:\_SKOLA\_VŠ\_7.SEMESTR\CPP DIVIS\CV03\CV03\DEBUG\SOURCE1.OBJ
/OUT:"C:\_SKOLA\_VŠ\_7.SEMESTR\CPP DIVIS\CV03\DEBUG\CV03.EXE" /INCREMENTAL /NOLOGO kernel32.lib user32.lib gdi32.lib winspool.lib comdlg32.lib advapi32.lib shell32.lib ole32.lib oleaut32.lib uuid.lib odbc32.lib odbccp32.lib /MANIFEST /MANIFESTUAC:"level='asInvoker' uiAccess='false'" /manifest:embed /DEBUG /PDB:"C:\_SKOLA\_VŠ\_7.SEMESTR\CPP DIVIS\CV03\DEBUG\CV03.PDB" /SUBSYSTEM:CONSOLE /TLBID:1 /DYNAMICBASE /NXCOMPAT /IMPLIB:"C:\_SKOLA\_VŠ\_7.SEMESTR\CPP DIVIS\CV03\DEBUG\CV03.LIB" /MACHINE:X86 DEBUG\SOURCE.OBJDEBUG\SOURCE1.OBJ
